IE 423 Project Part 1
…
3-Sigma rule for monthly variations

outliers <- data_long %>%
  group_by(name, month = format(timestamp, "%Y-%m")) %>%
  mutate(mean_price = mean(value, na.rm = TRUE),
         sd_price = sd(value, na.rm = TRUE),
         lower_limit = mean_price - 3 * sd_price,
         upper_limit = mean_price + 3 * sd_price) %>%
  filter(value < lower_limit | value > upper_limit)

outliers

## # A tibble: 434 × 8
## # Groups:   name, month [73]
##    timestamp           name  value month   mean_price sd_price lower_limit
##    <dttm>              <chr> <dbl> <chr>        <dbl>    <dbl>       <dbl>
##  1 2012-10-04 09:15:00 MGROS 18.4  2012-10      19.1     0.232       18.4 
##  2 2012-10-04 11:00:00 MGROS 18.4  2012-10      19.1     0.232       18.4 
##  3 2012-11-01 07:45:00 ARCLK  7.67 2012-11       7.06    0.201        6.46
##  4 2012-11-01 08:00:00 ARCLK  7.71 2012-11       7.06    0.201        6.46
##  5 2012-11-01 08:30:00 ARCLK  7.71 2012-11       7.06    0.201        6.46
##  6 2012-11-01 08:45:00 ARCLK  7.67 2012-11       7.06    0.201        6.46
##  7 2012-11-01 09:45:00 ARCLK  7.74 2012-11       7.06    0.201        6.46
##  8 2012-11-01 10:00:00 ARCLK  7.74 2012-11       7.06    0.201        6.46
##  9 2012-11-01 10:15:00 ARCLK  7.74 2012-11       7.06    0.201        6.46
## 10 2012-11-01 12:00:00 ARCLK  7.74 2012-11       7.06    0.201        6.46
## # ℹ 424 more rows
## # ℹ 1 more variable: upper_limit <dbl>
…
3-Sigma rule for 6-monthly variations

outliers_6months <- data_long %>%
  group_by(name, six_month_period) %>%
  mutate(mean_price = mean(value, na.rm = TRUE),
         sd_price = sd(value, na.rm = TRUE),
         lower_limit = mean_price - 3 * sd_price,
         upper_limit = mean_price + 3 * sd_price) %>%
  filter(value < lower_limit | value > upper_limit)

outliers_6months

## # A tibble: 216 × 9
## # Groups:   name, six_month_period [17]
##    timestamp           name  value date       six_month_period mean_price
##    <dttm>              <chr> <dbl> <date>     <chr>                 <dbl>
##  1 2012-12-10 15:00:00 MGROS  23.2 2012-12-10 2012-H2                19.8
##  2 2012-12-13 07:45:00 MGROS  24.4 2012-12-13 2012-H2                19.8
##  3 2012-12-13 08:00:00 MGROS  23.5 2012-12-13 2012-H2                19.8
##  4 2013-06-24 13:15:00 MGROS  17.7 2013-06-24 2013-H1                22.3
##  5 2013-06-24 13:30:00 MGROS  17.6 2013-06-24 2013-H1                22.3
##  6 2013-06-24 13:45:00 MGROS  17.6 2013-06-24 2013-H1                22.3
##  7 2013-06-24 14:00:00 MGROS  17.6 2013-06-24 2013-H1                22.3
##  8 2013-06-24 14:15:00 MGROS  17.4 2013-06-24 2013-H1                22.3
##  9 2013-06-24 14:30:00 MGROS  17.5 2013-06-24 2013-H1                22.3
## 10 2013-06-25 06:30:00 MGROS  17.7 2013-06-25 2013-H1                22.3
## # ℹ 206 more rows
## # ℹ 3 more variables: sd_price <dbl>, lower_limit <dbl>, upper_limit <dbl>
…
